// Jest Snapshot v1, https://goo.gl/fbAQLP

exports[`Login Form matches snapshot in loading in error state 1`] = `
<ForwardRef(styled.form)
  onSubmit={[Function]}
>
  <ForwardRef(styled.div)>
    <ForwardRef(styled.input)
      hasError={false}
      name="email"
      placeholder="email"
    />
  </ForwardRef(styled.div)>
  <ForwardRef(styled.div)>
    <ForwardRef(styled.div)>
      <ForwardRef(styled.input)
        hasError={false}
        name="password"
        placeholder="enter password"
      />
    </ForwardRef(styled.div)>
  </ForwardRef(styled.div)>
  <p>
    some error
  </p>
  <ForwardRef(styled.div)>
    <ForwardRef(styled.button)>
      login
    </ForwardRef(styled.button)>
  </ForwardRef(styled.div)>
</ForwardRef(styled.form)>
`;

exports[`Login Form matches snapshot in loading in state 1`] = `
<ForwardRef(styled.form)
  onSubmit={[Function]}
>
  <ForwardRef(styled.div)>
    <ForwardRef(styled.input)
      hasError={false}
      name="email"
      placeholder="email"
    />
  </ForwardRef(styled.div)>
  <ForwardRef(styled.div)>
    <ForwardRef(styled.div)>
      <ForwardRef(styled.input)
        hasError={false}
        name="password"
        placeholder="enter password"
      />
    </ForwardRef(styled.div)>
  </ForwardRef(styled.div)>
  <ForwardRef(styled.div)>
    <ForwardRef(styled.button)>
      loging in
    </ForwardRef(styled.button)>
  </ForwardRef(styled.div)>
</ForwardRef(styled.form)>
`;

exports[`Login Form matches snapshot in not loading in state 1`] = `
<ForwardRef(styled.form)
  onSubmit={[Function]}
>
  <ForwardRef(styled.div)>
    <ForwardRef(styled.input)
      hasError={false}
      name="email"
      placeholder="email"
    />
  </ForwardRef(styled.div)>
  <ForwardRef(styled.div)>
    <ForwardRef(styled.div)>
      <ForwardRef(styled.input)
        hasError={false}
        name="password"
        placeholder="enter password"
      />
    </ForwardRef(styled.div)>
  </ForwardRef(styled.div)>
  <ForwardRef(styled.div)>
    <ForwardRef(styled.button)>
      login
    </ForwardRef(styled.button)>
  </ForwardRef(styled.div)>
</ForwardRef(styled.form)>
`;
