// Jest Snapshot v1, https://goo.gl/fbAQLP

exports[`Certificate Header renders and matches the snapshot 1`] = `
<ForwardRef(styled.div)>
  <ForwardRef(styled.div)
    style={
      Object {
        "flex": "1 1 0%",
      }
    }
  >
    <HeaderLogo />
    <ForwardRef(styled.div)>
      Certificate
    </ForwardRef(styled.div)>
  </ForwardRef(styled.div)>
  <ForwardRef(styled.div)>
    <HeaderDisclaimer
      collaborators={4}
      files={0}
      timestamps={0}
    />
    <HeaderStatus
      confirmed_at="2019-11-04T17:50:27Z"
      status="confirmed"
    />
  </ForwardRef(styled.div)>
</ForwardRef(styled.div)>
`;
